{
  "env": "development",
  "app": {
    "description": "you can overwrite the default config",
    "hello": "Config is configurable",
    "api_url": "http://192.168.1.169:8000/api/",
    "image_url":"https://s3-us-west-2.amazonaws.com/fordonor/",
    "user_image":"https://s3-us-west-2.amazonaws.com/fordonor/user/images/",
    "campaign_image":"https://s3-us-west-2.amazonaws.com/fordonor/campaign/images/"
  }
}
